<?xml version="1.0" encoding="UTF-8" standalone="no"?>
<!-- Created with Inkscape (http://www.inkscape.org/) -->

<svg
   width="128"
   height="128"
   viewBox="0 0 33.866666 33.866668"
   version="1.1"
   id="svg5"
   inkscape:version="1.1.2 (0a00cf5339, 2022-02-04)"
   sodipodi:docname="digit.svg"
   inkscape:export-filename="../Resources/Textures/Digit.png"
   inkscape:export-xdpi="96.000008"
   inkscape:export-ydpi="96.000008"
   xmlns:inkscape="http://www.inkscape.org/namespaces/inkscape"
   xmlns:sodipodi="http://sodipodi.sourceforge.net/DTD/sodipodi-0.dtd"
   xmlns:xlink="http://www.w3.org/1999/xlink"
   xmlns="http://www.w3.org/2000/svg"
   xmlns:svg="http://www.w3.org/2000/svg">
  <sodipodi:namedview
     id="namedview7"
     pagecolor="#505050"
     bordercolor="#eeeeee"
     borderopacity="1"
     inkscape:pageshadow="0"
     inkscape:pageopacity="0"
     inkscape:pagecheckerboard="0"
     inkscape:document-units="mm"
     showgrid="true"
     units="px"
     borderlayer="true"
     inkscape:snap-global="true"
     inkscape:zoom="7.953125"
     inkscape:cx="64"
     inkscape:cy="53.312377"
     inkscape:window-width="1920"
     inkscape:window-height="1056"
     inkscape:window-x="0"
     inkscape:window-y="0"
     inkscape:window-maximized="1"
     inkscape:current-layer="layer1">
    <inkscape:grid
       type="xygrid"
       id="grid940"
       spacingx="4.8379063"
       spacingy="3.3866667" />
  </sodipodi:namedview>
  <defs
     id="defs2">
    <linearGradient
       inkscape:collect="always"
       id="linearGradient1190">
      <stop
         style="stop-color:#ffffff;stop-opacity:0.74901962"
         offset="0"
         id="stop1186" />
      <stop
         style="stop-color:#ffffff;stop-opacity:1"
         offset="0.16334364"
         id="stop1420" />
      <stop
         style="stop-color:#ffffff;stop-opacity:0"
         offset="1"
         id="stop1188" />
    </linearGradient>
    <linearGradient
       inkscape:collect="always"
       xlink:href="#linearGradient1190"
       id="linearGradient1192"
       x1="0"
       y1="3.3866668"
       x2="0"
       y2="6.7733335"
       gradientUnits="userSpaceOnUse" />
  </defs>
  <g
     inkscape:label="Layer 1"
     inkscape:groupmode="layer"
     id="layer1">
    <rect
       style="opacity:1;fill:#000000;fill-opacity:1;fill-rule:evenodd;stroke:none;stroke-width:1.05833;stroke-linejoin:round;stop-color:#000000"
       id="rect1976"
       width="33.865345"
       height="33.866665"
       x="0"
       y="0" />
    <rect
       style="opacity:1;fill:url(#linearGradient1192);fill-rule:evenodd;stroke:none;stroke-width:1.05833;stroke-linejoin:round;stop-color:#000000;fill-opacity:1"
       id="rect858"
       width="4.8379059"
       height="3.3866668"
       x="0"
       y="3.3866668"
       inkscape:export-filename="/home/frode/bitmap.png"
       inkscape:export-xdpi="96.000008"
       inkscape:export-ydpi="96.000008" />
    <use
       x="0"
       y="0"
       xlink:href="#rect858"
       id="use1788"
       transform="translate(4.8379063)"
       width="100%"
       height="100%" />
    <use
       x="0"
       y="0"
       xlink:href="#rect858"
       id="use1790"
       transform="translate(9.675813)"
       width="100%"
       height="100%" />
    <use
       x="0"
       y="0"
       xlink:href="#rect858"
       id="use1792"
       transform="translate(14.513719)"
       width="100%"
       height="100%" />
    <use
       x="0"
       y="0"
       xlink:href="#rect858"
       id="use1794"
       transform="translate(24.189532)"
       width="100%"
       height="100%" />
    <use
       x="0"
       y="0"
       xlink:href="#rect858"
       id="use1796"
       transform="translate(29.027438)"
       width="100%"
       height="100%" />
    <use
       x="0"
       y="0"
       xlink:href="#rect858"
       id="use1798"
       transform="translate(-4e-7,3.3866666)"
       width="100%"
       height="100%" />
    <use
       x="0"
       y="0"
       xlink:href="#rect858"
       id="use1800"
       transform="translate(4.8379063,3.3866666)"
       width="100%"
       height="100%" />
    <use
       x="0"
       y="0"
       xlink:href="#rect858"
       id="use1802"
       transform="translate(9.675813,3.3866666)"
       width="100%"
       height="100%" />
    <use
       x="0"
       y="0"
       xlink:href="#rect858"
       id="use1804"
       transform="translate(14.51372,3.3866666)"
       width="100%"
       height="100%" />
    <use
       x="0"
       y="0"
       xlink:href="#rect858"
       id="use1806"
       transform="translate(19.351625,3.3866666)"
       width="100%"
       height="100%" />
    <use
       x="0"
       y="0"
       xlink:href="#rect858"
       id="use1808"
       transform="translate(24.189532,3.3866666)"
       width="100%"
       height="100%" />
    <use
       x="0"
       y="0"
       xlink:href="#rect858"
       id="use1810"
       transform="translate(29.027438,3.3866666)"
       width="100%"
       height="100%" />
    <use
       x="0"
       y="0"
       xlink:href="#rect858"
       id="use1812"
       transform="matrix(1,0,0,0.5000492,14.513719,-1.6935)"
       width="100%"
       height="100%"
       style="stroke-width:1.41414" />
    <use
       x="0"
       y="0"
       xlink:href="#rect858"
       id="use1814"
       transform="translate(-9.0000011e-7,6.7733333)"
       width="100%"
       height="100%" />
    <use
       x="0"
       y="0"
       xlink:href="#rect858"
       id="use1816"
       transform="translate(9.6758125,6.7733333)"
       width="100%"
       height="100%" />
    <use
       x="0"
       y="0"
       xlink:href="#rect858"
       id="use1818"
       transform="translate(24.189531,6.7733333)"
       width="100%"
       height="100%" />
    <use
       x="0"
       y="0"
       xlink:href="#rect858"
       id="use1820"
       transform="translate(-4.8378915e-7,10.16)"
       width="100%"
       height="100%" />
    <use
       x="0"
       y="0"
       xlink:href="#rect858"
       id="use1822"
       transform="translate(4.8379062,10.16)"
       width="100%"
       height="100%" />
    <use
       x="0"
       y="0"
       xlink:href="#rect858"
       id="use1824"
       transform="translate(14.51372,10.16)"
       width="100%"
       height="100%" />
    <use
       x="0"
       y="0"
       xlink:href="#rect858"
       id="use1826"
       transform="translate(19.351625,10.16)"
       width="100%"
       height="100%" />
    <use
       x="0"
       y="0"
       xlink:href="#rect858"
       id="use1828"
       transform="translate(24.189532,10.16)"
       width="100%"
       height="100%" />
    <use
       x="0"
       y="0"
       xlink:href="#rect858"
       id="use1830"
       transform="translate(29.027438,10.16)"
       width="100%"
       height="100%" />
    <use
       x="0"
       y="0"
       xlink:href="#rect858"
       id="use1832"
       transform="translate(-1.1675783e-6,13.546667)"
       width="100%"
       height="100%" />
    <use
       x="0"
       y="0"
       xlink:href="#rect858"
       id="use1834"
       transform="translate(4.8379055,13.546667)"
       width="100%"
       height="100%" />
    <use
       x="0"
       y="0"
       xlink:href="#rect858"
       id="use1836"
       transform="translate(14.513719,13.546667)"
       width="100%"
       height="100%" />
    <use
       x="0"
       y="0"
       xlink:href="#rect858"
       id="use1838"
       transform="translate(24.189531,13.546667)"
       width="100%"
       height="100%" />
    <use
       x="0"
       y="0"
       xlink:href="#rect858"
       id="use1840"
       transform="translate(29.027437,13.546667)"
       width="100%"
       height="100%" />
    <use
       x="0"
       y="0"
       xlink:href="#rect858"
       id="use1842"
       transform="translate(4.8379062,16.933333)"
       width="100%"
       height="100%" />
    <use
       x="0"
       y="0"
       xlink:href="#rect858"
       id="use1844"
       transform="translate(9.6758129,16.933333)"
       width="100%"
       height="100%" />
    <use
       x="0"
       y="0"
       xlink:href="#rect858"
       id="use1846"
       transform="translate(14.51372,16.933333)"
       width="100%"
       height="100%" />
    <use
       x="0"
       y="0"
       xlink:href="#rect858"
       id="use1848"
       transform="translate(24.189532,16.933333)"
       width="100%"
       height="100%" />
    <use
       x="0"
       y="0"
       xlink:href="#rect858"
       id="use1850"
       transform="translate(-8.9999987e-7,20.32)"
       width="100%"
       height="100%" />
    <use
       x="0"
       y="0"
       xlink:href="#rect858"
       id="use1852"
       transform="translate(9.6758125,20.32)"
       width="100%"
       height="100%" />
    <use
       x="0"
       y="0"
       xlink:href="#rect858"
       id="use1854"
       transform="translate(14.51372,20.32)"
       width="100%"
       height="100%" />
    <use
       x="0"
       y="0"
       xlink:href="#rect858"
       id="use1856"
       transform="translate(24.189532,20.32)"
       width="100%"
       height="100%" />
    <use
       x="0"
       y="0"
       xlink:href="#rect858"
       id="use1858"
       transform="translate(29.027438,20.32)"
       width="100%"
       height="100%" />
    <use
       x="0"
       y="0"
       xlink:href="#rect858"
       id="use1860"
       transform="translate(-1.8378936e-7,23.706667)"
       width="100%"
       height="100%" />
    <use
       x="0"
       y="0"
       xlink:href="#rect858"
       id="use1862"
       transform="translate(9.6758132,23.706667)"
       width="100%"
       height="100%" />
    <use
       x="0"
       y="0"
       xlink:href="#rect858"
       id="use1864"
       transform="translate(14.51372,23.706667)"
       width="100%"
       height="100%" />
    <use
       x="0"
       y="0"
       xlink:href="#rect858"
       id="use1866"
       transform="translate(19.351625,23.706667)"
       width="100%"
       height="100%" />
    <use
       x="0"
       y="0"
       xlink:href="#rect858"
       id="use1868"
       transform="translate(29.027438,23.706667)"
       width="100%"
       height="100%" />
    <use
       x="0"
       y="0"
       xlink:href="#rect858"
       id="use1870"
       transform="translate(9.675813,27.093333)"
       width="100%"
       height="100%" />
    <use
       x="0"
       y="0"
       xlink:href="#rect858"
       id="use1872"
       transform="translate(24.189533,27.093333)"
       width="100%"
       height="100%" />
    <use
       x="0"
       y="0"
       xlink:href="#rect858"
       id="use3906"
       transform="matrix(1,0,0,0.5000492,14.513719,-3.3332276e-4)"
       width="100%"
       height="100%"
       style="stroke-width:1.41414" />
  </g>
</svg>
